Survey Analysis - plots over time
…
$data
# A tibble: 120 × 5
   variable                                         value  year     n proportion
   <chr>                                            <fct> <dbl> <int> <chr>     
 1 Authors of research papers and peer reviewers s… stro…  2021  2717 36.31%    
 2 Authors of research papers and peer reviewers s… stro…  2022  2952 38.59%    
 3 Authors of research papers and peer reviewers s… stro…  2023  1974 39.07%    
 4 Authors of research papers and peer reviewers s… rath…  2021  2943 39.33%    
 5 Authors of research papers and peer reviewers s… rath…  2022  3167 41.40%    
 6 Authors of research papers and peer reviewers s… rath…  2023  1849 36.59%    
 7 Authors of research papers and peer reviewers s… rath…  2021  1121 14.98%    
 8 Authors of research papers and peer reviewers s… rath…  2022  1038 13.57%    
 9 Authors of research papers and peer reviewers s… rath…  2023   752 14.88%    
10 Authors of research papers and peer reviewers s… stro…  2021   702 9.38%     
# ℹ 110 more rows
…
$data
# A tibble: 108 × 5
   variable                                         value  year     n proportion
   <chr>                                            <fct> <dbl> <int> <chr>     
 1 All co-authors are fully responsible for the co… stro…  2021  5671 63.83%    
 2 All co-authors are fully responsible for the co… stro…  2022  5708 62.17%    
 3 All co-authors are fully responsible for the co… stro…  2023  3756 66.07%    
 4 All co-authors are fully responsible for the co… rath…  2021  2387 26.87%    
 5 All co-authors are fully responsible for the co… rath…  2022  2730 29.73%    
 6 All co-authors are fully responsible for the co… rath…  2023  1440 25.33%    
 7 All co-authors are fully responsible for the co… rath…  2021   668 7.52%     
 8 All co-authors are fully responsible for the co… rath…  2022   612 6.67%     
 9 All co-authors are fully responsible for the co… rath…  2023   385 6.77%     
10 All co-authors are fully responsible for the co… stro…  2021   158 1.78%     
# ℹ 98 more rows
…
$data
# A tibble: 90 × 5
   variable                                         value  year     n proportion
   <chr>                                            <fct> <dbl> <int> <chr>     
 1 A person attributes to himself or herself the a… very…  2021   291 5.15%     
 2 A person attributes to himself or herself the a… very…  2022   307 5.30%     
 3 A person attributes to himself or herself the a… very…  2023   253 6.71%     
 4 A person attributes to himself or herself the a… freq…  2021   531 9.39%     
 5 A person attributes to himself or herself the a… freq…  2022   453 7.82%     
 6 A person attributes to himself or herself the a… freq…  2023   392 10.40%    
 7 A person attributes to himself or herself the a… some…  2021  1145 20.25%    
 8 A person attributes to himself or herself the a… some…  2022  1044 18.02%    
 9 A person attributes to himself or herself the a… some…  2023   902 23.93%    
10 A person attributes to himself or herself the a… rare…  2021  1101 19.48%    
# ℹ 80 more rows
…
$data
# A tibble: 48 × 5
   variable                                         value  year     n proportion
   <chr>                                            <fct> <dbl> <int> <chr>     
 1 Higher education institutions should provide op… stro…  2021  4026 49.14%    
 2 Higher education institutions should provide op… stro…  2022  4418 52.29%    
 3 Higher education institutions should provide op… stro…  2023  2631 49.30%    
 4 Higher education institutions should provide op… rath…  2021  2415 29.48%    
 5 Higher education institutions should provide op… rath…  2022  2464 29.16%    
 6 Higher education institutions should provide op… rath…  2023  1589 29.77%    
 7 Higher education institutions should provide op… rath…  2021  1206 14.72%    
 8 Higher education institutions should provide op… rath…  2022  1118 13.23%    
 9 Higher education institutions should provide op… rath…  2023   735 13.77%    
10 Higher education institutions should provide op… stro…  2021   546 6.66%     
# ℹ 38 more rows
…
$data
# A tibble: 45 × 5
   variable                                         value  year     n proportion
   <chr>                                            <fct> <dbl> <int> <chr>     
 1 "Students and teachers use unauthorized softwar… very…  2021   510 8.81%     
 2 "Students and teachers use unauthorized softwar… very…  2022   628 10.31%    
 3 "Students and teachers use unauthorized softwar… very…  2023   433 10.79%    
 4 "Students and teachers use unauthorized softwar… freq…  2021   702 12.12%    
 5 "Students and teachers use unauthorized softwar… freq…  2022   695 11.41%    
 6 "Students and teachers use unauthorized softwar… freq…  2023   555 13.83%    
 7 "Students and teachers use unauthorized softwar… some…  2021   977 16.87%    
 8 "Students and teachers use unauthorized softwar… some…  2022   964 15.83%    
 9 "Students and teachers use unauthorized softwar… some…  2023   808 20.13%    
10 "Students and teachers use unauthorized softwar… rare…  2021   822 14.19%    
# ℹ 35 more rows
…
$data
# A tibble: 75 × 5
   variable                                         value  year     n proportion
   <chr>                                            <fct> <dbl> <int> <chr>     
 1 Abuse of official position or authority to enco… very…  2021   200 3.18%     
 2 Abuse of official position or authority to enco… very…  2022   218 3.42%     
 3 Abuse of official position or authority to enco… very…  2023   210 5.06%     
 4 Abuse of official position or authority to enco… freq…  2021   244 3.88%     
 5 Abuse of official position or authority to enco… freq…  2022   274 4.30%     
 6 Abuse of official position or authority to enco… freq…  2023   279 6.72%     
 7 Abuse of official position or authority to enco… some…  2021   605 9.62%     
 8 Abuse of official position or authority to enco… some…  2022   668 10.49%    
 9 Abuse of official position or authority to enco… some…  2023   552 13.30%    
10 Abuse of official position or authority to enco… rare…  2021   784 12.47%    
# ℹ 65 more rows
